<?xml version="1.0" encoding="utf-8"?>
<!-- Generator: Adobe Illustrator 21.1.0, SVG Export Plug-In . SVG Version: 6.00 Build 0)  -->
<svg version="1.1" id="Слой_1" xmlns="http://www.w3.org/2000/svg" xmlns:xlink="http://www.w3.org/1999/xlink" x="0px" y="0px"
	 viewBox="0 0 3000 3000" style="enable-background:new 0 0 3000 3000;" xml:space="preserve">
<style type="text/css">
	.st0{fill:#ACDECB;}
	.st1{fill:#F5CA4E;}
	.st2{fill:#022873;}
	.st3{fill:#FFFFFF;}
</style>
<g>
	<path class="st0" d="M520,1583.4c65.2-160.9,161-305.1,284.7-428.9c123.7-123.7,268-219.5,428.9-284.7
		c155.3-63,319.4-94.9,487.7-94.9c168.3,0,332.4,31.9,487.7,94.9l-78.9,194.7c-130.2-52.8-267.7-79.5-408.8-79.5
		c-141.1,0-278.6,26.8-408.8,79.5c-134.6,54.6-255.5,134.9-359.2,238.6c-103.7,103.7-184,224.6-238.6,359.2L520,1583.4z"/>
	<path class="st1" d="M1269.2,1619l-148.6-148.6c81.1-81.1,175.6-143.9,281.1-186.6c101.8-41.3,209.3-62.2,319.7-62.2
		c110.3,0,217.8,20.9,319.6,62.2l-79,194.7c-76.6-31.1-157.6-46.8-240.7-46.8c-83.1,0-164.1,15.8-240.7,46.8
		C1401.4,1510.6,1330.3,1557.9,1269.2,1619z"/>
	<path class="st0" d="M1120.6,2671.9c-81-81-143.8-175.6-186.6-281.1l194.7-79c32.1,79.3,79.4,150.4,140.5,211.5L1120.6,2671.9z"/>
	<path class="st0" d="M1585.1,1934.8l-148.6-148.6c38.4-38.4,83.3-68.2,133.3-88.5c48.3-19.6,99.3-29.5,151.6-29.5
		s103.2,9.9,151.5,29.5l-78.9,194.7c-23.1-9.4-47.5-14.1-72.6-14.1c-25.1,0-49.5,4.8-72.6,14.1
		C1624.9,1902.2,1603.5,1916.4,1585.1,1934.8z"/>
	<path class="st1" d="M1144.5,650.5l-79-194.7c208.8-84.7,429.5-127.6,655.8-127.6c226.4,0,447,43,655.9,127.7l-79,194.7
		c-183.6-74.5-377.7-112.2-576.9-112.2C1522.2,538.3,1328.1,576,1144.5,650.5z"/>
	<path class="st2" d="M2046.1,1271.5l78.9-194.7c133.2,54,252.6,133.3,355,235.7L2331.4,1461C2249,1378.6,2153,1314.9,2046.1,1271.5
		z"/>
	<path class="st2" d="M727,2474.8c-52.1-128.6-78.6-264.4-78.6-403.7c0-139.3,26.4-275.1,78.6-403.7l194.7,78.9
		c-41.9,103.4-63.2,212.6-63.2,324.7c0,112.1,21.3,221.4,63.2,324.7L727,2474.8z"/>
	<path class="st1" d="M1141,2306.7c-30.4-75.1-45.9-154.4-45.8-235.6c0-81.3,15.4-160.6,45.9-235.6
		c31.5-77.7,77.8-147.4,137.5-207.2l148.6,148.6v0c-39.8,39.8-70.5,86-91.4,137.6c-20.2,49.8-30.5,102.5-30.5,156.6
		c0,54.1,10.2,106.8,30.5,156.7l0,0L1141,2306.7z"/>
</g>
</svg>
